<configuration>

   <MyCompanyAppSettings>
      <add key="Key1" value="This is value 1" />
      <add key="Key2" value="This is value 2" />
   </MyCompanyAppSettings>

   <system.web>

      <!-- Removed for clarity -->

   </system.web>

</configuration>
