<%@ Page Language="C#" Culture="auto" meta:resourcekey="PageResource1" UICulture="auto" %>

<script runat="server">

</script>

<html xmlns="http://www.w3.org/1999/xhtml" >
<head runat="server">
    <title>Sample Page</title>
</head>
<body>
    <form id="form1" runat="server">
    <div>
        <asp:Label ID="Label1" runat="server" Text="What is your name?" 
         meta:resourcekey="Label1Resource1"></asp:Label><br />
        <br />
        <asp:TextBox ID="TextBox1" runat="server" 
         meta:resourcekey="TextBox1Resource1"></asp:TextBox>&nbsp;
        <asp:Button ID="Button1"
         runat="server" Text="Submit Name" 
         meta:resourcekey="Button1Resource1" /><br />
        <br />
        <asp:Label ID="Label2" runat="server" 
         meta:resourcekey="Label2Resource1"></asp:Label>
    </div>
    </form>
</body>
</html>
